Materiais - Athos: Regressão Logística na Prática
…
PASSO 3) DATAPREP

credit_recipe <- recipe(Status ~ ., data = credit_train) %>%
  step_normalize(all_numeric()) %>%
  step_impute_linear(Income, Assets, Debt, impute_with = imp_vars(Expenses)) %>%
  step_modeimpute(Home) %>%
  step_dummy(all_nominal(), -all_outcomes()) %>%
  step_zv(all_predictors()) 

# olhando a base preparada
bake(prep(credit_recipe), new_data = NULL)

# A tibble: 3,030 x 23
   Seniority    Time     Age Expenses Income Assets   Debt  Amount
       <dbl>   <dbl>   <dbl>    <dbl>  <dbl>  <dbl>  <dbl>   <dbl>
 1     0.112  0.908  -0.634     0.899 -0.146 -0.542 -0.306 -0.495 
 2     1.09   0.908   1.91     -0.388 -0.121 -0.542 -0.306 -0.0565
 3    -0.993  0.908  -1.18      0.384  0.530 -0.273 -0.306 -0.276 
 4    -0.993 -0.728  -0.998    -0.491 -0.427 -0.542 -0.306 -1.57  
 5    -0.870  0.908  -0.0883    1.00   0.938 -0.165 -0.306 -0.823 
 6     2.57   0.908   0.639     1.00  -0.197  0.535 -0.306  1.26  
 7     0.112 -2.36   -0.907    -1.06  -0.771 -0.542 -0.306 -1.81  
 8    -0.993  0.908  -0.452     1.77  -0.427  1.07  -0.306  0.382 
 9    -0.993  0.0900  0.366     1.77  -0.771 -0.542 -0.306  0.382 
10    -0.256  0.0900 -0.270     0.230 -0.197 -0.111 -0.306  0.272 
# … with 3,020 more rows, and 15 more variables: Price <dbl>,
#   Status <fct>, Home_other <dbl>, Home_owner <dbl>,
#   Home_parents <dbl>, Home_priv <dbl>, Home_rent <dbl>,
#   Marital_married <dbl>, Marital_separated <dbl>,
#   Marital_single <dbl>, Marital_widow <dbl>, Records_yes <dbl>,
#   Job_freelance <dbl>, Job_others <dbl>, Job_partime <dbl>
…
# minha versão do autoplot()
collect_metrics(credit_lr_tune_grid)

# A tibble: 70 x 7
    penalty .metric    .estimator  mean     n std_err .config         
      <dbl> <chr>      <chr>      <dbl> <int>   <dbl> <chr>           
 1 1.92e-10 accuracy   binary     0.804     5 0.00503 Preprocessor1_M…
 2 1.92e-10 f_meas     binary     0.539     5 0.0138  Preprocessor1_M…
 3 1.92e-10 kap        binary     0.420     5 0.0164  Preprocessor1_M…
 4 1.92e-10 mn_log_lo… binary     0.425     5 0.00626 Preprocessor1_M…
 5 1.92e-10 precision  binary     0.668     5 0.0217  Preprocessor1_M…
 6 1.92e-10 recall     binary     0.452     5 0.0108  Preprocessor1_M…
 7 1.92e-10 roc_auc    binary     0.832     5 0.00546 Preprocessor1_M…
 8 2.35e- 9 accuracy   binary     0.804     5 0.00503 Preprocessor1_M…
 9 2.35e- 9 f_meas     binary     0.539     5 0.0138  Preprocessor1_M…
10 2.35e- 9 kap        binary     0.420     5 0.0164  Preprocessor1_M…
# … with 60 more rows
…
